; Target
target triple = "x86_64-unknown-linux-gnu"
; External declaration of the printf function
declare i32 @printf(i8* noalias nocapture, ...)
declare i32 @scanf(i8* noalias nocapture, ...)



define i32 @main(){
%i1 = alloca i32 
%t1 = alloca i32 
store i32 1, i32* %i1
%tmp1 = load i32, i32* %i1
store i32 %tmp1, i32* %t1
ret i32 0
ret i32 0
}


